Medición y diseño de investigación
…
---

## Dialectos 

.content-box-blue[
*Supongamos que tengo estos datos:*
]

```r
data
```

```
## # A tibble: 35 × 5
##     anio          pbi inflacion desempleo presidente 
##    <dbl>        <dbl>     <dbl>     <dbl> <chr>      
##  1  1985 249277574100      72.2     NA    Sanguinetti
##  2  1986 271238450500      76.4     NA    Sanguinetti
##  3  1987 292918912000      63.6     NA    Sanguinetti
##  4  1988 297256857900      62.2     NA    Sanguinetti
##  5  1989 300538279400      80.4     NA    Sanguinetti
##  6  1990 301431925100     113.      NA    Lacalle    
##  7  1991 312099023700     102.       9.01 Lacalle    
##  8  1992 336853433700      68.5      8.98 Lacalle    
##  9  1993 345805469000      54.1      8.94 Lacalle    
## 10  1994 370984750100      44.7      9    Lacalle    
## # ℹ 25 more rows
```
…
